Karatsuba.sim/sim_1/behav/simulate.log
Vivado Simulator 2016.2
Time resolution is 1 ps
   1   1       x
   1   1       1
   1   1       0
   1   1       1
   1   2       1
   1   2       1
   1   2       1
   1   2       0
   1   2       0
   1   2       0
   2   2       2
   2   2       2
   2   2       2
   2   2       4
   2   2       4
   2   2       4
   2   2       0
   2   2       0
   2   2       0
   3   2       0
   3   2       0
   3   2       0
   3   2       6
   3   2       6
   3   2       6
   4   2       6
   4   2       6
   4   2       6
   4   2       0
   4   2       0
   4   2       0
   5   2       8
   5   2       8
   5   2       8
   5   2      10
   5   2      10
   5   2      10
   5   2       0
   5   2       0
   5   2       0
   6   2       0
   6   2       0
   6   2       0
   6   2      12
   6   2      12
   6   2      12
   7   2      12
   7   2      12
   7   2      12
   7   2       0
   7   2       0
   7   2       0
   8   2      14
   8   2      14
   8   2      14
   8   2      16
   8   2      16
   8   2      16
   8   2       0
   8   2       0
   8   2       0
   9   2       0
   9   2       0
   9   2       0
   9   2      18
   9   2      18
   9   2      18
  10   2      18
  10   2      18
  10   2      18
  10   2       0
  10   2       0
  10   2       0
  11   2      20
  11   2      20
  11   2      20
  11   2      22
  11   2      22
  11   2      22
  11   2       0
  11   2       0
  11   2       0
  12   2       0
  12   2       0
  12   2       0
  12   2      24
  12   2      24
  12   2      24
  12   2       0
  12   2       0
  12   2       0
  12   2      24
  12   2      24
  12   2      24
  12   2       0
  12   2       0
  12   2       0
  12   2      24
  12   2      24
  12   2      24
  12   2       0
  12   2       0
  12   2       0
  12   2      24
  12   2      24
  12   2      24
  12   2       0
  12   2       0
  12   2       0
  12   2      24
  12   2      24
  12   2      24
   1   1       x
   1   1       1
   1   1       0
   1   1       1
   1   2       1
   1   2       1
   1   2       1
   1   2       0
   1   2       0
   1   2       0
   2   2       2
   2   2       2
   2   2       2
   2   2       4
   2   2       4
   2   2       4
   2   2       0
   2   2       0
   2   2       0
   3   2       0
   3   2       0
   3   2       0
   3   2       6
   3   2       6
   3   2       6
   4   2       6
   4   2       6
   4   2       6
   4   2       0
   4   2       0
   4   2       0
   5   2       8
   5   2       8
   5   2       8
   5   2      10
   5   2      10
   5   2      10
   5   2       0
   5   2       0
   5   2       0
   6   2       0
   6   2       0
   6   2       0
   6   2      12
   6   2      12
   6   2      12
   7   2      12
   7   2      12
   7   2      12
   7   2       0
   7   2       0
   7   2       0
   8   2      14
   8   2      14
   8   2      14
   8   2      16
   8   2      16
   8   2      16
   8   2       0
   8   2       0
   8   2       0
   9   2       0
   9   2       0
   9   2       0
   9   2      18
   9   2      18
   9   2      18
  10   2      18
  10   2      18
  10   2      18
  10   2       0
  10   2       0
  10   2       0
  11   2      20
  11   2      20
  11   2      20
  11   2      22
  11   2      22
  11   2      22
  11   2       0
  11   2       0
  11   2       0
  12   2       0
  12   2       0
  12   2       0
  12   2      24
  12   2      24
  12   2      24
  12   2       0
  12   2       0
  12   2       0
  12   2      24
  12   2      24
  12   2      24
  12   2       0
  12   2       0
  12   2       0
  12   2      24
  12   2      24
  12   2      24
  12   2       0
  12   2       0
  12   2       0
  12   2      24
  12   2      24
  12   2      24
   1   1       x
   1   1       1
   1   1       0
   1   1       1
   1   2       1
   1   2       1
   1   2       1
   1   2       0
   1   2       0
   1   2       0
   2   2       2
   2   2       2
   2   2       2
   2   2       4
   2   2       4
   2   2       4
   2   2       0
   2   2       0
   2   2       0
   3   2       0
  